C:\Users\PC\Documents\NetBeansProjects\proyectoFinal\proyectoFinal\src\main\java\vista\ABMCliente.java
C:\Users\PC\Documents\NetBeansProjects\proyectoFinal\proyectoFinal\src\main\java\controlador\Controlador.java
C:\Users\PC\Documents\NetBeansProjects\proyectoFinal\proyectoFinal\src\main\java\modelo\Menu.java
C:\Users\PC\Documents\NetBeansProjects\proyectoFinal\proyectoFinal\src\main\java\persistencia\ControladorPersistencia.java
C:\Users\PC\Documents\NetBeansProjects\proyectoFinal\proyectoFinal\src\main\java\vista\ABMIngrediente.java
C:\Users\PC\Documents\NetBeansProjects\proyectoFinal\proyectoFinal\src\main\java\modelo\Cliente.java
C:\Users\PC\Documents\NetBeansProjects\proyectoFinal\proyectoFinal\src\main\java\vista\MenuPrincipal.java
C:\Users\PC\Documents\NetBeansProjects\proyectoFinal\proyectoFinal\src\main\java\main\Main.java
C:\Users\PC\Documents\NetBeansProjects\proyectoFinal\proyectoFinal\src\main\java\modelo\Reserva.java
C:\Users\PC\Documents\NetBeansProjects\proyectoFinal\proyectoFinal\src\main\java\vista\ABMMenu.java
C:\Users\PC\Documents\NetBeansProjects\proyectoFinal\proyectoFinal\src\main\java\modelo\Ingrediente.java
C:\Users\PC\Documents\NetBeansProjects\proyectoFinal\proyectoFinal\src\main\java\vista\ABMReserva.java
